{
    "html-import-google-web-components": {
        "prefix": "hi-go",
        "body": "<link rel=\"import\" href=\"${1:../}bower_components/google-web-components/google-web-components.html\">$0",
        "description": "HTML Import: google-web-components"
    },
    "html-import-google-analytics": {
        "prefix": "hi-go-analytics",
        "body": "<link rel=\"import\" href=\"${1:../}bower_components/google-analytics/google-analytics.html\">$0",
        "description": "HTML Import: google-analytics"
    },
    "html-import-google-apis": {
        "prefix": "hi-go-apis",
        "body": "<link rel=\"import\" href=\"${1:../}bower_components/google-apis/google-apis.html\">$0",
        "description": "HTML Import: google-apis"
    },
    "html-import-google-client-loader": {
        "prefix": "hi-go-client",
        "body": "<link rel=\"import\" href=\"${1:../}bower_components/google-apis/google-client-loader.html\">$0",
        "description": "HTML Import: google-client-loader"
    },
    "html-import-google-maps-api": {
        "prefix": "hi-go-api-maps",
        "body": "<link rel=\"import\" href=\"${1:../}bower_components/google-apis/google-maps-api.html\">$0",
        "description": "HTML Import: google-maps-api"
    },
    "html-import-google-plusone-api": {
        "prefix": "hi-go-api-plusone",
        "body": "<link rel=\"import\" href=\"${1:../}bower_components/google-apis/google-plusone-api.html\">$0",
        "description": "HTML Import: google-plusone-api"
    },
    "html-import-google-realtime-api": {
        "prefix": "hi-go-api-realtime",
        "body": "<link rel=\"import\" href=\"${1:../}bower_components/google-apis/google-realtime-api.html\">$0",
        "description": "HTML Import: google-realtime-api"
    },
    "html-import-google-youtube-api": {
        "prefix": "hi-go-api-youtube",
        "body": "<link rel=\"import\" href=\"${1:../}bower_components/google-apis/google-youtube-api.html\">$0",
        "description": "HTML Import: google-youtube-api"
    },
    "html-import-google-js-api": {
        "prefix": "hi-go-api-js",
        "body": "<link rel=\"import\" href=\"${1:../}bower_components/google-apis/google-js-api.html\">$0",
        "description": "HTML Import: google-js-api"
    },
    "html-import-google-calendar": {
        "prefix": "hi-go-calendar",
        "body": "<link rel=\"import\" href=\"${1:../}bower_components/google-calendar/google-calendar.html\">$0",
        "description": "HTML Import: google-calendar"
    },
    "html-import-google-castable-video": {
        "prefix": "hi-go-video",
        "body": "<link rel=\"import\" href=\"${1:../}bower_components/google-castable-video/google-castable-video.html\">$0",
        "description": "HTML Import: google-castable-video"
    },
    "html-import-google-chart": {
        "prefix": "hi-go-chart",
        "body": "<link rel=\"import\" href=\"${1:../}bower_components/google-chart/google-chart.html\">$0",
        "description": "HTML Import: google-chart"
    },
    "html-import-google-feeds": {
        "prefix": "hi-go-feeds",
        "body": "<link rel=\"import\" href=\"${1:../}bower_components/google-feeds/google-feeds.html\">$0",
        "description": "HTML Import: google-feeds"
    },
    "html-import-google-hangout-button": {
        "prefix": "hi-go-hangout",
        "body": "<link rel=\"import\" href=\"${1:../}bower_components/google-hangout-button/google-hangout-button.html\">$0",
        "description": "HTML Import: google-hangout-button"
    },
    "html-import-google-map-elements": {
        "prefix": "hi-go-map",
        "body": "<link rel=\"import\" href=\"${1:../}bower_components/google-map/google-map-elements.html\">$0",
        "description": "HTML Import: google-map-elements"
    },
    "html-import-google-sheets": {
        "prefix": "hi-go-sheets",
        "body": "<link rel=\"import\" href=\"${1:../}bower_components/google-sheets/google-sheets.html\">$0",
        "description": "HTML Import: google-sheets"
    },
    "html-import-google-signin": {
        "prefix": "hi-go-signin",
        "body": "<link rel=\"import\" href=\"${1:../}bower_components/google-signin/google-signin.html\">$0",
        "description": "HTML Import: google-signin"
    },
    "html-import-google-signin-aware": {
        "prefix": "hi-go-signin-aware",
        "body": "<link rel=\"import\" href=\"${1:../}bower_components/google-signin/google-signin-aware.html\">$0",
        "description": "HTML Import: google-signin-aware"
    },
    "html-import-google-streetview-pano": {
        "prefix": "hi-go-streetview-pano",
        "body": "<link rel=\"import\" href=\"${1:../}bower_components/google-streetview-pano/google-streetview-pano.html\">$0",
        "description": "HTML Import: google-streetview-pano"
    },
    "html-import-google-url-shortener": {
        "prefix": "hi-go-shortener",
        "body": "<link rel=\"import\" href=\"${1:../}bower_components/google-url-shortener/google-url-shortener.html\">$0",
        "description": "HTML Import: google-url-shortener"
    },
    "html-import-google-youtube": {
        "prefix": "hi-go-youtube",
        "body": "<link rel=\"import\" href=\"${1:../}bower_components/google-youtube/google-youtube.html\">$0",
        "description": "HTML Import: google-youtube"
    },
    "html-import-google-youtube-upload": {
        "prefix": "hi-go-youtube-upload",
        "body": "<link rel=\"import\" href=\"${1:../}bower_components/google-youtube-upload/google-youtube-upload.html\">$0",
        "description": "HTML Import: google-youtube-upload"
    },
    "html-import-polymerfire": {
        "prefix": "hi-polymerfire",
        "body": "<link rel=\"import\" href=\"${1:../}bower_components/polymerfire/polymerfire.html\">$0",
        "description": "HTML Import: polymerfire"
    }
}